{
   "abstract" : "multiple dispatch on subroutines",
   "author" : [
      "Paul Evans <leonerd@leonerd.org.uk>"
   ],
   "dynamic_config" : 1,
   "generated_by" : "Module::Build version 0.4231",
   "license" : [
      "perl_5"
   ],
   "meta-spec" : {
      "url" : "http://search.cpan.org/perldoc?CPAN::Meta::Spec",
      "version" : 2
   },
   "name" : "Syntax-Keyword-MultiSub",
   "prereqs" : {
      "build" : {
         "requires" : {
            "ExtUtils::CBuilder" : "0"
         }
      },
      "configure" : {
         "requires" : {
            "Module::Build" : "0.4004",
            "XS::Parse::Sublike::Builder" : "0.15"
         }
      },
      "runtime" : {
         "requires" : {
            "XS::Parse::Sublike" : "0.15",
            "perl" : "5.026"
         }
      },
      "test" : {
         "requires" : {
            "Test::Fatal" : "0",
            "Test::More" : "0.88"
         }
      }
   },
   "provides" : {
      "Syntax::Keyword::MultiSub" : {
         "file" : "lib/Syntax/Keyword/MultiSub.pm",
         "version" : "0.02"
      }
   },
   "release_status" : "stable",
   "resources" : {
      "license" : [
         "http://dev.perl.org/licenses/"
      ],
      "x_IRC" : "irc://irc.perl.org/#io-async"
   },
   "version" : "0.02",
   "x_serialization_backend" : "JSON::PP version 4.05"
}
